{
  "ndk": "C:\\Users\\thpark\\AppData\\Local\\Android\\Sdk\\ndk\\21.3.6528147",
  "revision": {
    "mMajor": 21,
    "mMinor": 3,
    "mMicro": 6528147,
    "mPreview": 0,
    "mPrecision": "MICRO",
    "mPreviewSeparator": " "
  }
}